[themes.2the.me/Boomerang/op-index-2.html]
[backblue.gif]
[fade.gif]
[index.html]
[themes.2the.me/Boomerang/assets/images/favicon.png]
[themes.2the.me/Boomerang/assets/images/apple-touch-icon.png]
[themes.2the.me/Boomerang/assets/images/apple-touch-icon-72x72.png]
[themes.2the.me/Boomerang/assets/images/apple-touch-icon-114x114.png]
[use.fontawesome.com/releases/v5.0.6/css/all.css]
[themes.2the.me/Boomerang/assets/css/plugins.min.css]
[themes.2the.me/Boomerang/assets/css/template.css]
[themes.2the.me/Boomerang/index.html]
[themes.2the.me/Boomerang/start.html]
[themes.2the.me/Boomerang/assets/images/module-3.jpg]
[themes.2the.me/Boomerang/assets/images/module-1.jpg]
[themes.2the.me/Boomerang/assets/images/module-25.jpg]
[themes.2the.me/Boomerang/assets/images/main/mega-mockup.png]
[themes.2the.me/Boomerang/assets/images/portfolio/1.jpg]
[themes.2the.me/Boomerang/portfolio-single-1.html]
[themes.2the.me/Boomerang/assets/images/portfolio/4.jpg]
[themes.2the.me/Boomerang/assets/images/portfolio/3.jpg]
[themes.2the.me/Boomerang/assets/images/portfolio/6.jpg]
[themes.2the.me/Boomerang/assets/images/portfolio/5.jpg]
[themes.2the.me/Boomerang/assets/images/portfolio/2.jpg]
[themes.2the.me/Boomerang/assets/images/main/ipad.png]
[themes.2the.me/Boomerang/assets/images/team/1.jpg]
[themes.2the.me/Boomerang/assets/images/team/2.jpg]
[themes.2the.me/Boomerang/assets/images/team/3.jpg]
[themes.2the.me/Boomerang/assets/images/team/4.jpg]
[themes.2the.me/Boomerang/assets/images/team/5.jpg]
[themes.2the.me/Boomerang/assets/images/team/6.jpg]
[themes.2the.me/Boomerang/assets/images/avatar/1.jpg]
[themes.2the.me/Boomerang/assets/images/clients/1.png]
[themes.2the.me/Boomerang/assets/images/clients/2.png]
[themes.2the.me/Boomerang/assets/images/clients/3.png]
[themes.2the.me/Boomerang/assets/images/clients/4.png]
[themes.2the.me/Boomerang/assets/images/clients/5.png]
[themes.2the.me/Boomerang/assets/images/clients/6.png]
[themes.2the.me/Boomerang/assets/images/clients/7.png]
[themes.2the.me/Boomerang/assets/images/blog/1.jpg]
[themes.2the.me/Boomerang/blog-single.html]
[themes.2the.me/Boomerang/assets/images/blog/3.jpg]
[themes.2the.me/Boomerang/assets/images/blog/5.jpg]
[themes.2the.me/Boomerang/assets/images/module-18.jpg]
[themes.2the.me/Boomerang/assets/images/widgets/1.jpg]
[themes.2the.me/Boomerang/assets/images/widgets/2.jpg]
[themes.2the.me/Boomerang/assets/images/widgets/3.jpg]
[themes.2the.me/Boomerang/assets/images/widgets/7.jpg]
[themes.2the.me/Boomerang/assets/images/widgets/8.jpg]
[themes.2the.me/Boomerang/assets/images/widgets/6.jpg]
[themes.2the.me/Boomerang/assets/images/logo-light-2.png]
[themes.2the.me/Boomerang/assets/images/widgets/4.jpg]
[themes.2the.me/Boomerang/assets/images/widgets/5.jpg]
[themes.2the.me/Boomerang/assets/images/widgets/9.jpg]
[themes.2the.me/Boomerang/assets/js/custom/popper.min.js]
[themes.2the.me/Boomerang/assets/js/custom/jquery-3.2.1.min.js]
[themes.2the.me/Boomerang/assets/js/bootstrap/bootstrap.min.js]
[themes.2the.me/Boomerang/assets/js/custom/custom.min.js]
[themes.2the.me/Boomerang/op-index-2.html]
[themes.2the.me/Boomerang/assets/js/custom/plugins.min.js]
[fonts.googleapis.com/cssadfa.css]
[themes.2the.me/Boomerang/assets/images/menu-3.jpg]
[themes.2the.me/Boomerang/index-3.html]
[themes.2the.me/Boomerang/index-2.html]
[themes.2the.me/Boomerang/index-7.html]
[themes.2the.me/Boomerang/index-8.html]
[themes.2the.me/Boomerang/index-6.html]
[themes.2the.me/Boomerang/index-5.html]
[themes.2the.me/Boomerang/index-4.html]
[themes.2the.me/Boomerang/op-index.html]
[themes.2the.me/Boomerang/op-index-3.html]
[themes.2the.me/Boomerang/op-index-7.html]
[themes.2the.me/Boomerang/op-index-8.html]
[themes.2the.me/Boomerang/op-index-6.html]
[themes.2the.me/Boomerang/op-index-5.html]
[themes.2the.me/Boomerang/op-index-4.html]
[themes.2the.me/Boomerang/assets/images/menu-1.jpg]
[themes.2the.me/Boomerang/about-1.html]
[themes.2the.me/Boomerang/about-2.html]
[themes.2the.me/Boomerang/services-1.html]
[themes.2the.me/Boomerang/services-2.html]
[themes.2the.me/Boomerang/timeline.html]
[themes.2the.me/Boomerang/pricing-1.html]
[themes.2the.me/Boomerang/faqs.html]
[themes.2the.me/Boomerang/sign-in.html]
[themes.2the.me/Boomerang/sign-up.html]
[themes.2the.me/Boomerang/recover-password.html]
[themes.2the.me/Boomerang/contact-3.html]
[themes.2the.me/Boomerang/contact-2.html]
[themes.2the.me/Boomerang/contact-1.html]
[themes.2the.me/Boomerang/portfolio-7.html]
[themes.2the.me/Boomerang/portfolio-1.html]
[themes.2the.me/Boomerang/portfolio-2.html]
[themes.2the.me/Boomerang/portfolio-3.html]
[themes.2the.me/Boomerang/portfolio-4.html]
[themes.2the.me/Boomerang/portfolio-5.html]
[themes.2the.me/Boomerang/portfolio-6.html]
[themes.2the.me/Boomerang/portfolio-single-2.html]
[themes.2the.me/Boomerang/portfolio-single-3.html]
[themes.2the.me/Boomerang/portfolio-single-4.html]
[themes.2the.me/Boomerang/portfolio-single-5.html]
[themes.2the.me/Boomerang/portfolio-single-6.html]
[themes.2the.me/Boomerang/blog-1.html]
[themes.2the.me/Boomerang/blog-2.html]
[themes.2the.me/Boomerang/blog-3.html]
[themes.2the.me/Boomerang/blog-4.html]
[themes.2the.me/Boomerang/blog-5.html]
[themes.2the.me/Boomerang/blog-6.html]
[themes.2the.me/Boomerang/blog-7.html]
[themes.2the.me/Boomerang/blog-8.html]
[themes.2the.me/Boomerang/blog-single-1.html]
[themes.2the.me/Boomerang/blog-single-2.html]
[themes.2the.me/Boomerang/blog-single-3.html]
[themes.2the.me/Boomerang/shop-grid-1.html]
[themes.2the.me/Boomerang/shop-grid-2.html]
[themes.2the.me/Boomerang/shop-grid-3.html]
[themes.2the.me/Boomerang/shop-single-1.html]
[themes.2the.me/Boomerang/shop-checkout.html]
[themes.2the.me/Boomerang/shop-cart-1.html]
[themes.2the.me/Boomerang/assets/images/menu-2.jpg]
[themes.2the.me/Boomerang/components-alerts.html]
[themes.2the.me/Boomerang/components-accordion.html]
[themes.2the.me/Boomerang/components-buttons.html]
[themes.2the.me/Boomerang/components-clients.html]
[themes.2the.me/Boomerang/components-counters.html]
[themes.2the.me/Boomerang/components-maps.html]
[themes.2the.me/Boomerang/components-grid.html]
[themes.2the.me/Boomerang/components-hero.html]
[themes.2the.me/Boomerang/components-iconbox.html]
[themes.2the.me/Boomerang/components-forms.html]
[themes.2the.me/Boomerang/components-modal.html]
[themes.2the.me/Boomerang/components-pie.html]
[themes.2the.me/Boomerang/components-pricing.html]
[themes.2the.me/Boomerang/components-progress.html]
[themes.2the.me/Boomerang/components-sections.html]
[themes.2the.me/Boomerang/components-sliders.html]
[themes.2the.me/Boomerang/components-tabs.html]
[themes.2the.me/Boomerang/components-team.html]
[themes.2the.me/Boomerang/components-testimonials.html]
[themes.2the.me/Boomerang/components-tooltips.html]
[themes.2the.me/Boomerang/components-typography.html]
[themes.2the.me/Boomerang/components-video.html]
[themes.2the.me/Boomerang/documentation.html]
[themes.2the.me/Boomerang/index.html]
[themes.2the.me/Boomerang/assets/images/main/macbook.png]
[themes.2the.me/Boomerang/assets/images/demo/1.jpg]
[themes.2the.me/Boomerang/assets/images/demo/2.jpg]
[themes.2the.me/Boomerang/assets/images/demo/3.jpg]
[themes.2the.me/Boomerang/assets/images/demo/4.jpg]
[themes.2the.me/Boomerang/assets/images/demo/5.jpg]
[themes.2the.me/Boomerang/assets/images/demo/6.jpg]
[themes.2the.me/Boomerang/assets/images/demo/7.jpg]
[themes.2the.me/Boomerang/assets/images/demo/8.jpg]
[themes.2the.me/Boomerang/assets/images/demo/op-1.jpg]
[themes.2the.me/Boomerang/assets/images/demo/op-2.jpg]
[themes.2the.me/Boomerang/assets/images/demo/op-3.jpg]
[themes.2the.me/Boomerang/assets/images/demo/op-4.jpg]
[themes.2the.me/Boomerang/assets/images/demo/op-5.jpg]
[themes.2the.me/Boomerang/assets/images/demo/op-6.jpg]
[themes.2the.me/Boomerang/assets/images/demo/op-7.jpg]
[themes.2the.me/Boomerang/assets/images/demo/op-8.jpg]
[themes.2the.me/Boomerang/start.html]
[themes.2the.me/Boomerang/portfolio-single-1.html]
[themes.2the.me/Boomerang/blog-single.html]
[themes.2the.me/Boomerang/assets/images/module-21.jpg]
[themes.2the.me/Boomerang/index-3.html]
[themes.2the.me/Boomerang/index-2.html]
[themes.2the.me/Boomerang/index-7.html]
[themes.2the.me/Boomerang/index-8.html]
[themes.2the.me/Boomerang/index-6.html]
[themes.2the.me/Boomerang/index-5.html]
[themes.2the.me/Boomerang/index-4.html]
[themes.2the.me/Boomerang/op-index.html]
[themes.2the.me/Boomerang/op-index-3.html]
[themes.2the.me/Boomerang/op-index-7.html]
[themes.2the.me/Boomerang/op-index-8.html]
[themes.2the.me/Boomerang/op-index-6.html]
[themes.2the.me/Boomerang/op-index-5.html]
[themes.2the.me/Boomerang/op-index-4.html]
[themes.2the.me/Boomerang/assets/images/module-4.jpg]
[themes.2the.me/Boomerang/assets/images/main/about-4.jpg]
[themes.2the.me/Boomerang/assets/images/main/about-1.jpg]
[themes.2the.me/Boomerang/assets/images/main/about-2.jpg]
[themes.2the.me/Boomerang/about-1.html]
[themes.2the.me/Boomerang/assets/images/main/player.jpg]
[themes.2the.me/Boomerang/assets/images/avatar/2.jpg]
[themes.2the.me/Boomerang/assets/images/avatar/3.jpg]
[themes.2the.me/Boomerang/about-2.html]
[themes.2the.me/Boomerang/assets/images/avatar/4.jpg]
[themes.2the.me/Boomerang/assets/images/main/services-1.jpg]
[themes.2the.me/Boomerang/assets/images/main/iphone-5.png]
[themes.2the.me/Boomerang/assets/images/features/1.jpg]
[themes.2the.me/Boomerang/assets/images/features/2.jpg]
[themes.2the.me/Boomerang/services-1.html]
[themes.2the.me/Boomerang/assets/images/features/3.jpg]
[themes.2the.me/Boomerang/services-2.html]
[themes.2the.me/Boomerang/assets/images/main/notebook.png]
[themes.2the.me/Boomerang/timeline.html]
[themes.2the.me/Boomerang/pricing-1.html]
[themes.2the.me/Boomerang/faqs.html]
[themes.2the.me/Boomerang/sign-in.html]
[themes.2the.me/Boomerang/sign-up.html]
[themes.2the.me/Boomerang/recover-password.html]
[themes.2the.me/Boomerang/contact-3.html]
[themes.2the.me/Boomerang/contact-2.html]
[themes.2the.me/Boomerang/contact-1.html]
[themes.2the.me/Boomerang/assets/images/blog/7.jpg]
[themes.2the.me/Boomerang/assets/images/portfolio/9.jpg]
[themes.2the.me/Boomerang/assets/images/portfolio/10.jpg]
[themes.2the.me/Boomerang/assets/images/portfolio/11.jpg]
[themes.2the.me/Boomerang/portfolio-7.html]
[themes.2the.me/Boomerang/portfolio-1.html]
[themes.2the.me/Boomerang/portfolio-2.html]
[themes.2the.me/Boomerang/portfolio-3.html]
[themes.2the.me/Boomerang/portfolio-4.html]
[themes.2the.me/Boomerang/portfolio-5.html]
[themes.2the.me/Boomerang/portfolio-6.html]
[themes.2the.me/Boomerang/portfolio-single-2.html]
[themes.2the.me/Boomerang/portfolio-single-3.html]
[themes.2the.me/Boomerang/assets/images/portfolio/8.jpg]
[themes.2the.me/Boomerang/assets/images/portfolio/12.jpg]
[themes.2the.me/Boomerang/assets/images/portfolio/13.jpg]
[themes.2the.me/Boomerang/portfolio-single-4.html]
[themes.2the.me/Boomerang/portfolio-single-5.html]
[themes.2the.me/Boomerang/portfolio-single-6.html]
[themes.2the.me/Boomerang/blog-1.html]
[themes.2the.me/Boomerang/blog-2.html]
[themes.2the.me/Boomerang/blog-3.html]
[themes.2the.me/Boomerang/assets/images/blog/2.jpg]
[themes.2the.me/Boomerang/assets/images/blog/4.jpg]
[themes.2the.me/Boomerang/assets/images/blog/6.jpg]
[themes.2the.me/Boomerang/blog-4.html]
[themes.2the.me/Boomerang/blog-5.html]
[themes.2the.me/Boomerang/blog-6.html]
[themes.2the.me/Boomerang/blog-7.html]
[themes.2the.me/Boomerang/blog-8.html]
[themes.2the.me/Boomerang/blog-single-1.html]
[themes.2the.me/Boomerang/blog-single-2.html]
[themes.2the.me/Boomerang/blog-single-3.html]
[themes.2the.me/Boomerang/assets/images/shop/1.jpg]
[themes.2the.me/Boomerang/assets/images/shop/2.jpg]
[themes.2the.me/Boomerang/assets/images/shop/3.jpg]
[themes.2the.me/Boomerang/assets/images/shop/4.jpg]
[themes.2the.me/Boomerang/assets/images/shop/5.jpg]
[themes.2the.me/Boomerang/assets/images/shop/6.jpg]
[themes.2the.me/Boomerang/assets/images/shop/7.jpg]
[themes.2the.me/Boomerang/shop-grid-1.html]
[themes.2the.me/Boomerang/assets/images/shop/8.jpg]
[themes.2the.me/Boomerang/assets/images/shop/9.jpg]
[themes.2the.me/Boomerang/shop-grid-2.html]
[themes.2the.me/Boomerang/shop-grid-3.html]
[themes.2the.me/Boomerang/shop-single-1.html]
[themes.2the.me/Boomerang/shop-checkout.html]
[themes.2the.me/Boomerang/shop-cart-1.html]
[themes.2the.me/Boomerang/components-alerts.html]
[themes.2the.me/Boomerang/components-accordion.html]
[themes.2the.me/Boomerang/components-buttons.html]
[themes.2the.me/Boomerang/components-clients.html]
[themes.2the.me/Boomerang/components-counters.html]
[themes.2the.me/Boomerang/components-maps.html]
[themes.2the.me/Boomerang/components-grid.html]
[themes.2the.me/Boomerang/components-hero.html]
[themes.2the.me/Boomerang/components-iconbox.html]
[themes.2the.me/Boomerang/components-forms.html]
[themes.2the.me/Boomerang/components-modal.html]
[themes.2the.me/Boomerang/components-pie.html]
[themes.2the.me/Boomerang/components-pricing.html]
[themes.2the.me/Boomerang/components-progress.html]
[themes.2the.me/Boomerang/components-sections.html]
[themes.2the.me/Boomerang/components-sliders.html]
[themes.2the.me/Boomerang/components-tabs.html]
[themes.2the.me/Boomerang/components-team.html]
[themes.2the.me/Boomerang/components-testimonials.html]
[themes.2the.me/Boomerang/components-tooltips.html]
[themes.2the.me/Boomerang/components-typography.html]
[themes.2the.me/Boomerang/components-video.html]
[themes.2the.me/Boomerang/documentation.html]
[themes.2the.me/Boomerang/assets/images/main/iphone.png]
[themes.2the.me/Boomerang/assets/images/module-3.jpg]
[themes.2the.me/Boomerang/assets/images/module-1.jpg]
[themes.2the.me/Boomerang/assets/images/module-25.jpg]
[themes.2the.me/Boomerang/assets/images/main/mega-mockup.png]
[themes.2the.me/Boomerang/assets/images/portfolio/1.jpg]
[themes.2the.me/Boomerang/assets/images/portfolio/4.jpg]
[themes.2the.me/Boomerang/assets/images/portfolio/3.jpg]
[themes.2the.me/Boomerang/assets/images/portfolio/6.jpg]
[themes.2the.me/Boomerang/assets/images/portfolio/5.jpg]
[themes.2the.me/Boomerang/assets/images/portfolio/2.jpg]
[themes.2the.me/Boomerang/assets/images/main/ipad.png]
[themes.2the.me/Boomerang/assets/images/team/1.jpg]
[themes.2the.me/Boomerang/assets/images/team/2.jpg]
[themes.2the.me/Boomerang/assets/images/team/3.jpg]
[themes.2the.me/Boomerang/assets/images/team/4.jpg]
[themes.2the.me/Boomerang/assets/images/team/5.jpg]
[themes.2the.me/Boomerang/assets/images/team/6.jpg]
[use.fontawesome.com/releases/v5.0.6/css/all.css]
[use.fontawesome.com/releases/v5.0.6/webfonts/fa-regular-400.svg]
[themes.2the.me/Boomerang/assets/images/avatar/1.jpg]
[themes.2the.me/Boomerang/assets/images/clients/1.png]
[themes.2the.me/Boomerang/assets/images/clients/2.png]
[themes.2the.me/Boomerang/assets/css/owl.video.play.c2.delayed]
[themes.2the.me/Boomerang/assets/images/clients/3.png]
[themes.2the.me/Boomerang/assets/images/clients/4.png]
[use.fontawesome.com/releases/v5.0.6/webfonts/fa-brands-400.svg]
[themes.2the.me/Boomerang/assets/images/clients/5.png]
[themes.2the.me/Boomerang/assets/images/clients/6.png]
[themes.2the.me/Boomerang/assets/fonts/Simple-Line-Iconsb26c.eot]
[themes.2the.me/Boomerang/assets/images/clients/7.png]
[themes.2the.me/Boomerang/assets/images/blog/1.jpg]
[themes.2the.me/Boomerang/assets/images/blog/3.jpg]
[use.fontawesome.com/releases/v5.0.6/webfonts/fa-solid-900.svg]
[themes.2the.me/Boomerang/assets/images/blog/5.jpg]
[themes.2the.me/Boomerang/assets/images/module-18.jpg]
[themes.2the.me/Boomerang/assets/fonts/Simple-Line-Icons.c5b26c.delayed]
[themes.2the.me/Boomerang/assets/images/widgets/1.jpg]
[themes.2the.me/Boomerang/assets/fonts/Simple-Line-Iconsb26c.woff2]
[themes.2the.me/Boomerang/assets/images/widgets/2.jpg]
[themes.2the.me/Boomerang/assets/images/widgets/3.jpg]
[themes.2the.me/Boomerang/assets/images/widgets/7.jpg]
[themes.2the.me/Boomerang/assets/images/widgets/6.jpg]
[themes.2the.me/Boomerang/assets/images/widgets/8.jpg]
[themes.2the.me/Boomerang/assets/images/logo-light-2.png]
[themes.2the.me/Boomerang/assets/fonts/themify9f24.eot]
[themes.2the.me/Boomerang/assets/images/widgets/4.jpg]
[themes.2the.me/Boomerang/assets/fonts/Simple-Line-Iconsb26c.svg]
[themes.2the.me/Boomerang/assets/images/widgets/5.jpg]
[themes.2the.me/Boomerang/assets/fonts/themifyd41d.eot]
[themes.2the.me/Boomerang/assets/images/widgets/9.jpg]
[themes.2the.me/Boomerang/assets/fonts/Simple-Line-Iconsb26c.woff]
[themes.2the.me/Boomerang/assets/js/custom/jquery-3.2.1.min.js]
[themes.2the.me/Boomerang/assets/fonts/themify9f24.ttf]
[themes.2the.me/Boomerang/assets/fonts/themify9f24.woff]
[themes.2the.me/Boomerang/assets/css/plugins.min.css]
[themes.2the.me/Boomerang/assets/js/custom/popper.min.js]
[themes.2the.me/Boomerang/assets/images/close.png]
[themes.2the.me/Boomerang/assets/fonts/themify9f24.svg]
[themes.2the.me/Boomerang/assets/css/template.css]
[themes.2the.me/Boomerang/portfolio-single-1.html]
[themes.2the.me/Boomerang/assets/js/bootstrap/bootstrap.min.js]
[themes.2the.me/Boomerang/blog-single.html]
[themes.2the.me/Boomerang/assets/images/menu-2.jpg]
[themes.2the.me/Boomerang/index-3.html]
[themes.2the.me/Boomerang/assets/js/custom/custom.min.js]
[themes.2the.me/Boomerang/assets/images/main/macbook.png]
[themes.2the.me/Boomerang/assets/images/demo/1.jpg]
[themes.2the.me/Boomerang/components-alerts.html]
[themes.2the.me/Boomerang/assets/fonts/Simple-Line-Iconsb26c.ttf]
[use.fontawesome.com/releases/v5.0.6/webfonts/fa-brands-400.svg]
[themes.2the.me/Boomerang/assets/js/custom/plugins.min.js]
[use.fontawesome.com/releases/v5.0.6/webfonts/fa-regular-400.svg]
[use.fontawesome.com/releases/v5.0.6/webfonts/fa-solid-900.svg]
[themes.2the.me/Boomerang/assets/fonts/themify9f24.ttf]
[themes.2the.me/Boomerang/assets/css/owl.video.play.html]
[themes.2the.me/Boomerang/assets/fonts/Simple-Line-Iconsb26c.svg]
[themes.2the.me/Boomerang/assets/fonts/themify9f24.svg]
